…
ports
```

    ## # A tibble: 25,832 × 14
    ##                            port    arrival arrival_time  departure
    ##                          <fctr>      <chr>       <time>      <chr>
    ## 1  Маріупольський Морський Порт 30.03.2015     13:45:00 01.04.2015
    ## 2  Маріупольський Морський Порт 01.04.2015     09:30:00 04.04.2015
    ## 3  Маріупольський Морський Порт 01.08.2015     13:15:00 04.08.2015
    ## 4  Маріупольський Морський Порт 31.03.2015     21:00:00 05.04.2015
    ## 5  Маріупольський Морський Порт 29.06.2015     13:40:00 01.07.2015
    ## 6  Маріупольський Морський Порт 02.04.2015     11:20:00 03.04.2015
    ## 7  Маріупольський Морський Порт 26.10.2015     03:00:00 28.10.2015
    ## 8  Маріупольський Морський Порт 19.08.2015     14:35:00 21.08.2015
    ## 9  Маріупольський Морський Порт 20.08.2015     00:40:00 24.08.2015
    ## 10 Маріупольський Морський Порт 23.11.2015     10:50:00 27.11.2015
    ## # ... with 25,822 more rows, and 10 more variables: departure_time <time>,
    ## #   vessel_id <chr>, vessel_name <chr>, vessel_type <fctr>, flag <chr>,
    ## #   deadweight <dbl>, purpose <fctr>, cargo <fctr>, cargo_weight <dbl>,
    ## #   company <chr>
…
